{
  "name": "chatmessagecontextdelete",
  "title": "Chat Message Context Delete",
  "description": "Delete a chat message from it's context menu.",
  "author": "wonko",
  "version": "0.0.1",
  "minimumCoreVersion": "0.8.9",
  "compatibleCoreVersion" : "9.242",
  "scripts": [
    "chatMessageContextDelete.js"
  ],
  "url": "https://gitlab.com/reichler/chatMessageContextDelete",
  "manifest": "https://gitlab.com/reichler/chatMessageContextDelete/-/raw/master/chatMessageContextDelete/module.json",
  "download": "https://gitlab.com/reichler/chatMessageContextDelete/-/jobs/artifacts/master/raw/chatMessageContextDelete.zip?job=build"
}
